Institution report
…
This document creates a report of all of institutions affiliated in some way with Databrary.

How to generate

Source the helper functions (source("institutions-investigators/R/helpers.R")) from the R console.

Execute render_institutions_report(db_login, max_party_id), substituting your own Databrary login (email) for db_login and the maximum party_id value you want to use to update the institutions database.

Set-up

Update institutions

By default, this report updates the local institutions database. If you are running the report for the first time, the update may take awhile. It may be necessary for you to increase the value for the reports max_party_id parameter from time to time.

## # A tibble: 657 x 7
##    inst_id inst_name inst_url n_auth_invest daa     lat   lon
##      <dbl> <chr>     <chr>            <dbl> <lgl> <dbl> <dbl>
##  1       2 Staff     <NA>                 0 FALSE  NA    NA  
##  2       8 New York http://            31 TRUE   40.7 -74.0
##  3       9 National <NA>                 0 FALSE  38.8 -77.1
##  4      10 National https:/             0 FALSE  35.7 -97.5
##  5      12 Pennsylv http://            20 TRUE   40.8 -77.9
##  6      15 National <NA>                 0 FALSE  39.0 -77.1
##  7      43 Universi https:/            10 TRUE   43.1 -89.4
##  8      44 Universi https:/             9 TRUE   42.3 -83.7
##  9      45 Universi https:/             4 TRUE   43.1 -77.6
## 10      46 Georgia  http://             3 TRUE   33.8 -84.4
## #  with 647 more rows
…
